{
  "showCLICommands": false,
  "addExtensionsToInternalLinks": "html",
  "injectAppCSS": "dark",
  "injectThemeCSS": false,
  "customCSSFile": null,
  "displayYAMLFrontmatter": false,
  "linkStrippingBehaviour": "text",
  "highDPIDiagrams": true,
  "pandoc": null,
  "pdflatex": null,
  "outputFolder": "C:\\Users\\marti\\OneDrive\\Dokumente",
  "extraArguments": "",
  "exportFrom": "html"
}